<?xml version="1.0" standalone="no"?>
<!DOCTYPE svg PUBLIC "-//W3C//DTD SVG 20010904//EN"
 "http://www.w3.org/TR/2001/REC-SVG-20010904/DTD/svg10.dtd">
<svg version="1.0" xmlns="http://www.w3.org/2000/svg"
 width="519.000000pt" height="519.000000pt" viewBox="0 0 519.000000 519.000000"
 preserveAspectRatio="xMidYMid meet">
<metadata>
Created by potrace 1.11, written by Peter Selinger 2001-2013
</metadata>
<g transform="translate(0.000000,519.000000) scale(0.100000,-0.100000)"
fill="#000000" stroke="none">
<path d="M1979 4186 c0 -104 0 -1034 1 -1117 0 -44 1 -46 48 -69 26 -13 58
-31 72 -40 14 -9 50 -30 80 -47 30 -17 71 -40 90 -51 19 -12 56 -33 82 -46
l46 -25 -1 747 -2 747 -207 1 -208 1 -1 -101z"/>
<path d="M3725 3873 c-22 -15 -61 -38 -86 -52 -25 -14 -112 -64 -193 -111
-205 -119 -219 -127 -347 -200 -63 -35 -115 -68 -117 -72 -2 -4 -8 -8 -13 -8
-5 0 -34 -15 -65 -32 -90 -53 -167 -97 -191 -110 -23 -11 -24 -16 -24 -113 0
-367 1 -398 16 -385 8 7 32 22 54 34 40 22 379 217 434 250 31 18 55 32 202
117 39 22 77 44 85 49 20 11 124 72 176 101 23 13 105 60 182 104 78 44 142
86 142 94 0 7 -10 30 -22 50 -30 47 -41 66 -116 199 -35 62 -67 112 -70 111
-4 0 -25 -12 -47 -26z"/>
<path d="M883 3161 c-37 -64 -83 -146 -104 -183 l-37 -67 237 -134 c130 -74
256 -146 281 -159 25 -14 77 -44 117 -67 39 -22 89 -50 110 -62 21 -12 106
-60 188 -107 83 -47 155 -85 160 -85 6 0 40 19 78 41 37 23 72 42 77 42 6 0
10 4 10 8 0 5 23 19 50 32 28 13 50 27 50 32 0 4 6 8 13 8 6 0 41 19 76 41
l64 41 -49 29 c-27 16 -54 29 -61 29 -6 0 -13 4 -15 8 -1 4 -30 23 -63 41 -96
54 -118 66 -360 204 -306 173 -467 264 -560 317 -57 33 -83 47 -142 79 l-53
28 -67 -116z"/>
<path d="M3223 2757 c-12 -6 -64 -37 -115 -67 -51 -30 -99 -58 -108 -63 -8 -4
-28 -16 -45 -27 -16 -10 -53 -31 -82 -46 l-52 -28 32 -15 c18 -8 34 -18 37
-22 3 -3 23 -16 45 -28 22 -12 72 -39 110 -61 39 -22 86 -48 105 -58 19 -9 37
-20 40 -23 3 -3 65 -39 138 -80 73 -41 140 -79 150 -84 9 -6 53 -30 97 -54
153 -85 340 -193 349 -202 6 -5 18 -9 27 -9 10 0 19 -4 21 -8 2 -5 38 -27 80
-51 74 -40 98 -45 98 -18 0 7 11 28 24 47 12 19 39 64 58 100 44 84 60 111 75
130 6 8 16 27 22 41 9 26 7 28 -87 80 -53 29 -98 56 -100 61 -2 4 -8 8 -14 8
-10 0 -495 270 -540 301 -15 11 -29 19 -32 19 -2 0 -72 38 -154 85 -83 47
-152 85 -153 85 -2 0 -14 -6 -26 -13z"/>
<path d="M2375 2271 c-6 -5 -32 -21 -60 -35 -27 -15 -57 -31 -65 -36 -46 -28
-148 -87 -160 -94 -8 -4 -24 -12 -35 -19 -11 -7 -110 -64 -220 -127 -110 -63
-209 -120 -220 -127 -11 -7 -29 -17 -40 -23 -11 -5 -41 -22 -66 -38 -26 -15
-82 -47 -125 -72 -43 -25 -98 -57 -123 -72 -26 -15 -59 -34 -76 -42 -16 -8
-42 -23 -57 -34 l-27 -18 21 -34 c23 -38 22 -36 123 -212 l67 -117 66 36 c37
20 83 46 102 58 19 12 58 35 85 50 86 49 149 85 165 95 47 29 153 90 156 90 2
0 41 22 86 49 101 59 122 71 273 156 66 38 127 74 137 82 14 13 16 44 16 254
0 131 -3 239 -7 239 -4 0 -11 -4 -16 -9z"/>
<path d="M2690 2188 c-2 -522 0 -1391 4 -1396 2 -4 95 -7 207 -6 l203 0 6 25
c3 13 5 296 4 628 l-1 603 -39 22 c-21 11 -40 24 -42 29 -2 4 -7 7 -12 7 -4 0
-46 22 -92 48 -151 88 -183 106 -186 104 -1 -2 -10 4 -18 13 -28 28 -34 15
-34 -77z"/>
</g>
</svg>
